{
  "app_name": {
    "message": "Markdown Here Revival",
    "description": "This is the name of the extension, the placeholder $APPNAME$ is used the remaining strings.",
    "hash": "edf09063590176700ead1a22bf3a5937"
  },
  "app_slogan": {
    "message": "E-mails de marcação para Mozilla Thunderbird",
    "hash": "7aa2f8c03f41e6629904f5833dac94a7"
  },
  "__WET_GROUP__application": {
    "message": "Aplicação",
    "hash": "705a7139d345ac5faa9a3cfc7114e189"
  },
  "toggle_button_tooltip_enable": {
    "message": "Ativar a visualização de marcação",
    "description": "text shown when user hovers mouse over Markdown Toggle button",
    "hash": "d9cb83c089cf43059f988f5bb25d6ad9"
  },
  "toggle_button_tooltip_disable": {
    "message": "Desativar a visualização de marcação",
    "description": "text shown when user hovers mouse over Markdown Toggle button",
    "hash": "6569e1487fed213bcf1513bb93fb12fc"
  },
  "upgrade_notification_text": {
    "message": "$APPNAME$ atualizado",
    "description": "Text on the notification shown when Markdown Here has been updated",
    "placeholders": {
      "appname": {
        "content": "$1"
      }
    },
    "hash": "76796ecd460f742236be591169ce278b"
  },
  "update_notes_button": {
    "message": "Notas de atualização",
    "hash": "fef3aae852e44ea637393db11e0da28a"
  },
  "cancel_button": {
    "message": "Cancelar",
    "hash": "17aa19f18a894459ab6ff21156e8a341"
  },
  "forgot_to_render_back_button": {
    "message": "Voltar",
    "description": "Text on the Back (cancel) button of the prompt that's shown when it's detected that a user may have forgotten to render the Markdown in their email",
    "hash": "16a5bc1e5d6a2e5bbb1b35ca483971e8"
  },
  "forgot_to_render_prompt_close_hover": {
    "message": "Descartar este aviso",
    "description": "Text that shows when the user hovers over the 'X' that will close the prompt",
    "hash": "48f8b404a3afd15f165abe500bf625c0"
  },
  "forgot_to_render_prompt_info": {
    "message": "Parece que você escreveu este e-mail em Markdown mas esqueceu de torná-lo elegante.",
    "description": "Informational part of the prompt that's shown when it's detected that a user may have forgotten to render the Markdown in their email",
    "hash": "7a6bf5503a66dfc42914e6fec5a668ba"
  },
  "forgot_to_render_prompt_question": {
    "message": "Enviar mesmo assim?",
    "description": "Question part of the prompt that's shown when it's detected that a user may have forgotten to render the Markdown in their email",
    "hash": "5ceefbf6f6675554ec47ed2fac4edc4d"
  },
  "forgot_to_render_send_button": {
    "message": "Enviar",
    "description": "Text on the Send (continue) button of the prompt that's shown when it's detected that a user may have forgotten to render the Markdown in their email",
    "hash": "f654735fe65fdb8b2c7bd00ce5c4096d"
  },
  "set_math_api_url": {
    "message": "Defina uma URL API para renderização em Configurações.",
    "description": "A message displayed when math rendering is set to use Gchart but an invalid URL is set.",
    "hash": "265f98a913e4f279878a79f3dabbb39c"
  },
  "reset_preview": {
    "message": "Repor a visualização",
    "description": "Context menu item displayed on the compose action that resets the live preview to a usable state.",
    "hash": "6ca043613138c5e1b2e3b20df003c175"
  },
  "edit_as_new_markdown_message": {
    "message": "Editar como nova mensagem de Markdown",
    "description": "Context menu item displayed from message list",
    "hash": "6c44fa4651ec2a7ba8c69cbb5d6f7602"
  },
  "__WET_GROUP__settings": {
    "message": "Páginas de configurações de extensão",
    "hash": "ce17411c17caa2a7736b05051cd1b2e2"
  },
  "options_page__page_title": {
    "message": "Opções do $APPNAME$",
    "placeholders": {
      "appname": {
        "content": "$1"
      }
    },
    "hash": "fefb9554fa7cc03466d11dd0e706bb2e"
  },
  "__WET_GROUP__options": {
    "message": "Opções",
    "hash": "531dad0078a72193602b18495f0ad4e9"
  },
  "options_page__options_title": {
    "message": "Opções",
    "hash": "531dad0078a72193602b18495f0ad4e9"
  },
  "options_page__interface_mode": {
    "message": "Interface do usuário",
    "description": "Label for selecting the user interface mode (eg. modern or classic modes)",
    "hash": "a827c951ef7fe2da75ebc58baf88287f"
  },
  "options_page__mdhr_classic_mode": {
    "message": "Use o modo pre-4.0 (clássico)",
    "description": "Label for selecting classic UI",
    "hash": "ca33d5b7a452b6e1fdd82d32b42b844f"
  },
  "options_page__mdhr_modern_mode": {
    "message": "Use modo de visualização ao vivo (moderno)",
    "description": "Label for selecting modern UI",
    "hash": "fd781763933043b55578498058686099"
  },
  "options_page__forgot_to_render_label2": {
    "message": "Habilitar verificação esquecida-a-render",
    "description": "Label for the checkbox that enables the forgot-to-render feature",
    "hash": "303a6d031665e54b24debeb7fd5827b7"
  },
  "options_page__forgot_to_render_2": {
    "message": "Quando você envia um e-mail, isso verifica o conteúdo para ver se parece que você o escreveu em Markdown,\nmas esqueceu de renderizá-lo (ou seja, clique em 'Markdown Toggle') antes de enviar.\nIsso pode precisar ser desativado se interferir na sua capacidade de enviar e-mail.",
    "description": "Descriptive text explaining the 'forgot-to-render' feature.",
    "hash": "1c100cda3b6f6da50138458b785b47cb"
  },
  "options_page__composer_start_markdown_mode": {
    "message": "Iniciar compositor no modo de marcação",
    "hash": "97a0a3d24c0345f5347393de128d07d0"
  },
  "options_page__features_title": {
    "message": "Características de marcação",
    "description": "Heading for a set of options to enable or disable various features of the Markdown rendering",
    "hash": "e04d60a1956f82aa35a56aac12b6aaf3"
  },
  "options_page__gfm_line_breaks_enabled_label": {
    "message": "Ativar quebras de linha GFM.",
    "description": "Label for the checkbox that enables the support of 'Github-flavored Markdown' line breaks.",
    "hash": "5ac5728cb528e8d8edaa61ca7fbd6255"
  },
  "options_page__smart_replacements_enabled_label": {
    "message": "Habilitar substituições tipográficos \"inteligentes\"",
    "description": "Label for enabling the smart replacements feature",
    "hash": "d53c8006f33df32034b4e13dec238738"
  },
  "options_page__smart_replacements_2": {
    "message": "Os substitutos inteligentes incluem: citações unicode, en- e em-dash, elipses e substituições de seta",
    "description": "An explanation of what smart replacements are",
    "hash": "5f91244199941f295456a0c754f51ddf"
  },
  "options_page__emoji_shortcode_enabled_label": {
    "message": "Activar: (Github estilo) Códigos de acesso",
    "description": "Label for enabling emoji shortcodes",
    "hash": "b20f1c09d205160478c354cfd2aefc59"
  },
  "options_page__emoji_autocomplete_enabled_label": {
    "message": "Ativar Emoji popup auto-completo",
    "description": "Label for enabling an auto-complete popup for emoji shortcodes",
    "hash": "c3f3aa4d8b7861ec6924305a7ae2e055"
  },
  "options_page__hotkey_title": {
    "message": "Tecla Rápida (ou atalho de teclado)",
    "description": "A section title",
    "hash": "50ef7c2fb35b7df36ea871c4b23d151a"
  },
  "options_page__tex_math_title": {
    "message": "Suporte a Fórmulas Matemáticas em TeX",
    "hash": "8c09b9f03c93800e4f601e57c374eec5"
  },
  "options_page__tex_math_texzilla_label": {
    "message": "Renderização TeXZilla e HTML Canvas",
    "description": "Label for tex math rendering option",
    "hash": "c210e3a6960c6d788491ac424f16c7a3"
  },
  "options_page__tex_math_texzilla_label-Title": {
    "message": "As fórmulas de matemática são renderizadas com TeXZilla.js usando a tela do navegador. Nenhum pedido de rede é enviado.",
    "description": "description how math is rendered when TexZilla option is selected",
    "hash": "ead94268f19cef4441fc69f97689d9b6"
  },
  "options_page__tex_math_gchart_label": {
    "message": "renderização matemática usando o Google Chart API (deprecated)",
    "description": "Label for GChart math rendering option",
    "hash": "c6a8eb172130d05f0820da44862d8b99"
  },
  "options_page__tex_math_gchart_label-Title": {
    "message": "Para gerar a imagem da fórmula, um pedido é enviado ao Google. Isso efetivamente significa que você está compartilhando sua fórmula com o Google. Também significa que os destinatários da sua mensagem farão um pedido ao Google para ter a imagem renderizada.",
    "description": "one of the TeX math privacy concerns",
    "hash": "45421bd5f89bb7b4209792e558a5684f"
  },
  "options_page__tex_math_gchart_discontinued": {
    "message": "A API do Google Image Chart está descontinuada.",
    "description": "Information about the discontinued GChart Image API formerly used to render math formula.",
    "hash": "11547235a52d1c5e18f5066ff170e3e1"
  },
  "options_page__buglink_description": {
    "message": "Criar links para bug ou emitir rastreadores como `#12345`. Os campos abaixo são usados para modelar a URL e o texto dos links.",
    "description": "Description of bug/issue link feature.",
    "hash": "2802e093c06e7d053e596261afe9fe27"
  },
  "options_page__buglink_enabled_label": {
    "message": "Habilitar links de Bug/Issue",
    "description": "Enable Bug or Issue linking",
    "hash": "ff6080e1ffeb0eefb573565c4cdd4134"
  },
  "options_page__buglink_url": {
    "message": "Link URL",
    "description": "Template field for creating bug/issue links",
    "hash": "1df9e2c05db77316a3a97275017967b7"
  },
  "options_page__buglink_text": {
    "message": "Texto de ligação",
    "description": "Template for bug/issue link text",
    "hash": "6d3723ccc9b4bf5a55cb0ca849b9438e"
  },
  "__WET_GROUP__usage": {
    "message": "Como",
    "hash": "71ec48cc2984647ec331a3bcee3a9610"
  },
  "options_page__howto": {
    "message": "Como",
    "hash": "71ec48cc2984647ec331a3bcee3a9610"
  },
  "options_page__basic_usage": {
    "message": "Uso Básico",
    "hash": "1725d6ca5bc388ea2f5286d5f59eca84"
  },
  "options_page__start_new_message_toggle": {
    "message": "Comece uma nova mensagem de e-mail. Alternar o compositor para marcar o modo com o botão de ação na barra de ferramentas de formato.",
    "hash": "a3cf8f8bcf6c08e2ba178c9a999bda2a"
  },
  "options_page__type_some_markdown": {
    "message": "Escreva um pouco de Markdown no e-mail. Experimente isso:",
    "hash": "f0db9e92b6eead27204d516a3034a2fc"
  },
  "options_page__short_markdown_example": {
    "message": "\"Markdown\" Aqui está!",
    "hash": "67f19cc4f24de8f9b404819ab7633356"
  },
  "options_page__compose_live_preview": {
    "message": "As atualizações de visualização ao vivo enquanto você escreve sua mensagem.",
    "hash": "549af642c5b973f9b4c4c304eb004475"
  },
  "options_page__compose_send_message": {
    "message": "Envie sua mensagem!",
    "hash": "4ab42a8334e6c82218c00d007d10fae5"
  },
  "options_page__toggle_hotkey": {
    "message": "Ou use o hotkey:",
    "description": "A step suggestion in the basic usage instructions",
    "hash": "64f745514a24fa38ae148ef25745c835"
  },
  "options_page__resources_title": {
    "message": "Recursos e Links",
    "description": "A section title",
    "hash": "d3acbfafa858245f2345f00786324790"
  },
  "options_page__resources_cheatsheet_link": {
    "message": "Cola de Markdown Here",
    "hash": "ddb4af27f215d4704f3f31878374c20f"
  },
  "options_page__mdhr_wiki": {
    "message": "Markdown Aqui Revival wiki",
    "hash": "31514a95d56ddc2d8df5c4d15439d17f"
  },
  "options_page__tips_tricks_link": {
    "message": "Dicas e truques",
    "hash": "c17546aca51dff7b1014d20502cb526"
  },
  "__WET_GROUP__theme": {
    "message": "Tema",
    "hash": "9da24ca7508eb181c632829fd698be9a"
  },
  "options_page__primary_css_title": {
    "message": "Estilo CSS Primário",
    "description": "section title",
    "hash": "1381af5b005843fe11ee6884b0093683"
  },
  "options_page__syntax_highlighting_css_title": {
    "message": "CSS de Destaque de Sintaxe",
    "description": "section title",
    "hash": "697181e7fed87c2b2c17dab7b3e1cf25"
  },
  "options_page__syntax_highlighting_theme_label": {
    "message": "Tema",
    "description": "label for the syntax highlighting theme combo box",
    "hash": "9da24ca7508eb181c632829fd698be9a"
  },
  "options_page__preview_title": {
    "message": "Pré-visualização",
    "description": "section title for the Markdown preview section",
    "hash": "b2ce6f78ea0a002ab97efea02562c3c0"
  },
  "__WET_GROUP__about": {
    "message": "Sobre a",
    "hash": "da73d37076fcb711ec18ea36c7efb1d5"
  },
  "options_page__about": {
    "message": "Sobre a",
    "hash": "da73d37076fcb711ec18ea36c7efb1d5"
  },
  "options_page__report_bugs_title": {
    "message": "Erros de relatório",
    "hash": "9f1ec9f89229e160f8f9dd23cc4f9709"
  },
  "options_page__create_gitlab_issue": {
    "message": "Criar novo problema no GitLab",
    "description": "Text linking to Gitlab issue creation page",
    "hash": "43410ee226a64717592bd271c54ac2e0"
  },
  "options_page__issue_debug_info": {
    "message": "A seguinte informação de depuração pode ser usada:",
    "description": "header for some extension debug information",
    "hash": "5a0b6bc6650dcc7ba9cab037516e48e6"
  },
  "options_page__debug_copy_clipboard": {
    "message": "Copiar para clipboard",
    "description": "button for copying debug information to the clipboard",
    "hash": "17b6a865f4e197dcff670c9ac12517a1"
  },
  "options_page__translate": {
    "message": "Traduzir",
    "description": "Used in a link to open Locale Maker",
    "hash": "a8d574720117a40a83469771b9a4825d"
  },
  "options_page__localemaker_1": {
    "message": "Locale Maker é flagrantemente copiado da extensão FireMonkey para Firefox.",
    "description": "Description of Locale Maker source.",
    "hash": "22a4387b17e1ba4776709abc0543afa4"
  },
  "options_page__localemaker_2": {
    "message": "Obrigado a erosman por sua criação.",
    "description": "Credit to Locale Maker author.",
    "hash": "fa17dd5843873b9c6fe69dfbedb640a3"
  },
  "options_page__changelog_title": {
    "message": "Mudança.",
    "hash": "d1f539e046abe83e76dcf2163f9a143c"
  },
  "options_page__changes_saved": {
    "message": "Alterações salvas",
    "description": "message that shows when user changes have been saved",
    "hash": "d99c431e6bd557568398d89c7e83914b"
  },
  "options_page__invalid_hotkey": {
    "message": "Quente inválido!",
    "description": "message that shows when an invalid hotkey combination was entered",
    "hash": "54331fedbb67ec446035ce5b0b51b92"
  },
  "options_page__reset_button": {
    "message": "Redefinição",
    "description": "used for resetting certain options to the default",
    "hash": "d25968a7dfc21f95043a86dd5373b81"
  },
  "__WET_LOCALE__": {
    "message": "en",
    "hash": "e2d59e95a3a41434b5a59d9ac0897d74"
  }
}